…
    ## See spec(...) for full column specifications.

    ## Warning: Unknown levels in `f`: 9

    ## Warning: Unknown levels in `f`: 8

``` r
birthweight
```

    ## # A tibble: 4,342 x 20
    ##    babysex bhead blength   bwt delwt fincome frace gaweeks malform menarche
    ##    <fct>   <dbl>   <dbl> <dbl> <dbl>   <dbl> <fct>   <dbl> <fct>      <dbl>
    ##  1 female     34      51  3629   177      35 white    39.9 absent        13
    ##  2 male       34      48  3062   156      65 black    25.9 absent        14
    ##  3 female     36      50  3345   148      85 white    39.9 absent        12
    ##  4 male       34      52  3062   157      55 white    40   absent        14
    ##  5 female     34      52  3374   156       5 white    41.6 absent        13
    ##  6 male       33      52  3374   129      55 white    40.7 absent        12
    ##  7 female     33      46  2523   126      96 black    40.3 absent        14
    ##  8 female     33      49  2778   140       5 white    37.4 absent        12
    ##  9 male       36      52  3515   146      85 white    40.3 absent        11
    ## 10 male       33      50  3459   169      75 black    40.7 absent        12
    ## # … with 4,332 more rows, and 10 more variables: mheight <dbl>,
    ## #   momage <dbl>, mrace <fct>, parity <dbl>, pnumlbw <dbl>, pnumsga <dbl>,
    ## #   ppbmi <dbl>, ppwt <dbl>, smoken <dbl>, wtgain <dbl>
…
## Plot of Model Residuals and Fitted Values

``` r
modelr::add_predictions(birthweight, fit)
```

    ## # A tibble: 4,342 x 21
    ##    babysex bhead blength   bwt delwt fincome frace gaweeks malform menarche
    ##    <fct>   <dbl>   <dbl> <dbl> <dbl>   <dbl> <fct>   <dbl> <fct>      <dbl>
    ##  1 female     34      51  3629   177      35 white    39.9 absent        13
    ##  2 male       34      48  3062   156      65 black    25.9 absent        14
    ##  3 female     36      50  3345   148      85 white    39.9 absent        12
    ##  4 male       34      52  3062   157      55 white    40   absent        14
    ##  5 female     34      52  3374   156       5 white    41.6 absent        13
    ##  6 male       33      52  3374   129      55 white    40.7 absent        12
    ##  7 female     33      46  2523   126      96 black    40.3 absent        14
    ##  8 female     33      49  2778   140       5 white    37.4 absent        12
    ##  9 male       36      52  3515   146      85 white    40.3 absent        11
    ## 10 male       33      50  3459   169      75 black    40.7 absent        12
    ## # … with 4,332 more rows, and 11 more variables: mheight <dbl>,
    ## #   momage <dbl>, mrace <fct>, parity <dbl>, pnumlbw <dbl>, pnumsga <dbl>,
    ## #   ppbmi <dbl>, ppwt <dbl>, smoken <dbl>, wtgain <dbl>, pred <dbl>

``` r
modelr::add_residuals(birthweight, fit)
```

    ## # A tibble: 4,342 x 21
    ##    babysex bhead blength   bwt delwt fincome frace gaweeks malform menarche
    ##    <fct>   <dbl>   <dbl> <dbl> <dbl>   <dbl> <fct>   <dbl> <fct>      <dbl>
    ##  1 female     34      51  3629   177      35 white    39.9 absent        13
    ##  2 male       34      48  3062   156      65 black    25.9 absent        14
    ##  3 female     36      50  3345   148      85 white    39.9 absent        12
    ##  4 male       34      52  3062   157      55 white    40   absent        14
    ##  5 female     34      52  3374   156       5 white    41.6 absent        13
    ##  6 male       33      52  3374   129      55 white    40.7 absent        12
    ##  7 female     33      46  2523   126      96 black    40.3 absent        14
    ##  8 female     33      49  2778   140       5 white    37.4 absent        12
    ##  9 male       36      52  3515   146      85 white    40.3 absent        11
    ## 10 male       33      50  3459   169      75 black    40.7 absent        12
    ## # … with 4,332 more rows, and 11 more variables: mheight <dbl>,
    ## #   momage <dbl>, mrace <fct>, parity <dbl>, pnumlbw <dbl>, pnumsga <dbl>,
    ## #   ppbmi <dbl>, ppwt <dbl>, smoken <dbl>, wtgain <dbl>, resid <dbl>
…
